{
  "photos": {
    "page": 1,
    "pages": 18,
    "perpage": 100,
    "total": "1790",
    "photo": [
      {
        "id": "51155402212",
        "owner": "48563015@N07",
        "secret": "f5ae518bf0",
        "server": "65535",
        "farm": 66,
        "title": "La belle et le sage..India 2017",
        "ispublic": 1,
        "isfriend": 0,
        "isfamily": 0
      },
      {
        "id": "50955917146",
        "owner": "29209845@N04",
        "secret": "5a18eca524",
        "server": "65535",
        "farm": 66,
        "title": "Asia - Nepal / Kathmandu",
        "ispublic": 1,
        "isfriend": 0,
        "isfamily": 0
      },
      {
        "id": "49301543031",
        "owner": "98403995@N08",
        "secret": "d7f10b8aa7",
        "server": "65535",
        "farm": 66,
        "title": "Nepal - Washing Place - 275bb",
        "ispublic": 1,
        "isfriend": 0,
        "isfamily": 0
      },
      {
        "id": "49301752947",
        "owner": "98403995@N08",
        "secret": "ee909ffa71",
        "server": "65535",
        "farm": 66,
        "title": "Nepal - Washing Place - 277bb",
        "ispublic": 1,
        "isfriend": 0,
        "isfamily": 0
      },
      {
        "id": "49301530296",
        "owner": "98403995@N08",
        "secret": "d645f0e83f",
        "server": "65535",
        "farm": 66,
        "title": "Nepal - Boudha - 270",
        "ispublic": 1,
        "isfriend": 0,
        "isfamily": 0
      },
      {
        "id": "49301740922",
        "owner": "98403995@N08",
        "secret": "dfc3f10b8a",
        "server": "65535",
        "farm": 66,
        "title": "Nepal - Boudha - Streetlife - 344",
        "ispublic": 1,
        "isfriend": 0,
        "isfamily": 0
      },
      {
        "id": "49301033958",
        "owner": "98403995@N08",
        "secret": "66b8534889",
        "server": "65535",
        "farm": 66,
        "title": "Nepal - Boudha - Washing Place - 276",
        "ispublic": 1,
        "isfriend": 0,
        "isfamily": 0
      },
      {
        "id": "49301730627",
        "owner": "98403995@N08",
        "secret": "53f9aedffb",
        "server": "65535",
        "farm": 66,
        "title": "Nepal - Boudha - Washing Place - 277",
        "ispublic": 1,
        "isfriend": 0,
        "isfamily": 0
      },
      {
        "id": "49301592617",
        "owner": "98403995@N08",
        "secret": "7af1feb6b8",
        "server": "65535",
        "farm": 66,
        "title": "Nepal - Boudha - Temple - 362bb",
        "ispublic": 1,
        "isfriend": 0,
        "isfamily": 0
      },
      {
        "id": "49300897323",
        "owner": "98403995@N08",
        "secret": "7bfe69c9ca",
        "server": "65535",
        "farm": 66,
        "title": "Nepal - Boudha - Temple - 363",
        "ispublic": 1,
        "isfriend": 0,
        "isfamily": 0
      },
      {
        "id": "49300896663",
        "owner": "98403995@N08",
        "secret": "e1af8dd580",
        "server": "65535",
        "farm": 66,
        "title": "Nepal - Boudha - Temple - 364",
        "ispublic": 1,
        "isfriend": 0,
        "isfamily": 0
      },
      {
        "id": "49300895758",
        "owner": "98403995@N08",
        "secret": "858f8ea197",
        "server": "65535",
        "farm": 66,
        "title": "Nepal - Boudha - Temple - 365",
        "ispublic": 1,
        "isfriend": 0,
        "isfamily": 0
      },
      {
        "id": "49301378856",
        "owner": "98403995@N08",
        "secret": "f4af72bfb6",
        "server": "65535",
        "farm": 66,
        "title": "Nepal - Boudha - Temple - 366",
        "ispublic": 1,
        "isfriend": 0,
        "isfamily": 0
      },
      {
        "id": "49301377766",
        "owner": "98403995@N08",
        "secret": "c182cecd42",
        "server": "65535",
        "farm": 66,
        "title": "Nepal - Boudha - Temple - 367",
        "ispublic": 1,
        "isfriend": 0,
        "isfamily": 0
      },
      {
        "id": "50175588882",
        "owner": "166072824@N05",
        "secret": "48a7af6e93",
        "server": "65535",
        "farm": 66,
        "title": "Stupa",
        "ispublic": 1,
        "isfriend": 0,
        "isfamily": 0
      },
      {
        "id": "49869756842",
        "owner": "45115614@N05",
        "secret": "fcaf90d37e",
        "server": "65535",
        "farm": 66,
        "title": "\"Fenêtre sur Bauddhanath\". Kathmandu, Népal.",
        "ispublic": 1,
        "isfriend": 0,
        "isfamily": 0
      },
      {
        "id": "49651828212",
        "owner": "187399350@N02",
        "secret": "eaf37310b5",
        "server": "65535",
        "farm": 66,
        "title": "Bodnath (Boudha) Stupa, Kathmandu Nepal - the worlds largest Buddhist Stupa.",
        "ispublic": 1,
        "isfriend": 0,
        "isfamily": 0
      },
      {
        "id": "49651017658",
        "owner": "187399350@N02",
        "secret": "4da98db08a",
        "server": "65535",
        "farm": 66,
        "title": "Tibetans and Nepali alike praying and circumambulating Bodnath (Boudha) Stupa, Kathmandu Nepal - the worlds largest Buddhist Stupa.",
        "ispublic": 1,
        "isfriend": 0,
        "isfamily": 0
      },
      {
        "id": "49628742408",
        "owner": "77742560@N06",
        "secret": "516e6759c7",
        "server": "65535",
        "farm": 66,
        "title": "Boudhabath is considered one of the most imposing landmarks in Kathmandu",
        "ispublic": 1,
        "isfriend": 0,
        "isfamily": 0
      },
      {
        "id": "49465028256",
        "owner": "162694074@N06",
        "secret": "08ee70ee0d",
        "server": "65535",
        "farm": 66,
        "title": "Vat Aham,, Luang Prabang, Laos-1160035",
        "ispublic": 1,
        "isfriend": 0,
        "isfamily": 0
      },
      {
        "id": "49301521041",
        "owner": "98403995@N08",
        "secret": "9b55448573",
        "server": "65535",
        "farm": 66,
        "title": "Nepal - Boudha - Washing Place - 275",
        "ispublic": 1,
        "isfriend": 0,
        "isfamily": 0
      },
      {
        "id": "49300781361",
        "owner": "98403995@N08",
        "secret": "383989142c",
        "server": "65535",
        "farm": 66,
        "title": "Nepal - Boudha - Temple - 358",
        "ispublic": 1,
        "isfriend": 0,
        "isfamily": 0
      },
      {
        "id": "49300293428",
        "owner": "98403995@N08",
        "secret": "a8cd880029",
        "server": "65535",
        "farm": 66,
        "title": "Nepal - Boudha - Temple - 359",
        "ispublic": 1,
        "isfriend": 0,
        "isfamily": 0
      },
      {
        "id": "49300987667",
        "owner": "98403995@N08",
        "secret": "f78f9ce79f",
        "server": "65535",
        "farm": 66,
        "title": "Nepal - Boudha - Temple - 360",
        "ispublic": 1,
        "isfriend": 0,
        "isfamily": 0
      },
      {
        "id": "49300778621",
        "owner": "98403995@N08",
        "secret": "b348eeddef",
        "server": "65535",
        "farm": 66,
        "title": "Nepal - Boudha - Temple - 361",
        "ispublic": 1,
        "isfriend": 0,
        "isfamily": 0
      },
      {
        "id": "49300985727",
        "owner": "98403995@N08",
        "secret": "d5010c3c63",
        "server": "65535",
        "farm": 66,
        "title": "Nepal - Boudha - Temple - 362",
        "ispublic": 1,
        "isfriend": 0,
        "isfamily": 0
      },
      {
        "id": "49300289623",
        "owner": "98403995@N08",
        "secret": "84d080ebc9",
        "server": "65535",
        "farm": 66,
        "title": "Nepal - Boudha - Temple - 337",
        "ispublic": 1,
        "isfriend": 0,
        "isfamily": 0
      },
      {
        "id": "49300983702",
        "owner": "98403995@N08",
        "secret": "1c711169ab",
        "server": "65535",
        "farm": 66,
        "title": "Nepal - Boudha - Temple - 348",
        "ispublic": 1,
        "isfriend": 0,
        "isfamily": 0
      },
      {
        "id": "49300982977",
        "owner": "98403995@N08",
        "secret": "e9012971f8",
        "server": "65535",
        "farm": 66,
        "title": "Nepal - Boudha - Temple - 353",
        "ispublic": 1,
        "isfriend": 0,
        "isfamily": 0
      },
      {
        "id": "49300286693",
        "owner": "98403995@N08",
        "secret": "3a0a1d9b6e",
        "server": "65535",
        "farm": 66,
        "title": "Nepal - Boudha - Temple - 354",
        "ispublic": 1,
        "isfriend": 0,
        "isfamily": 0
      },
      {
        "id": "49300285363",
        "owner": "98403995@N08",
        "secret": "529b01f975",
        "server": "65535",
        "farm": 66,
        "title": "Nepal - Boudha - Temple - 355",
        "ispublic": 1,
        "isfriend": 0,
        "isfamily": 0
      },
      {
        "id": "49300284548",
        "owner": "98403995@N08",
        "secret": "ed41e02778",
        "server": "65535",
        "farm": 66,
        "title": "Nepal - Boudha - Temple - 356",
        "ispublic": 1,
        "isfriend": 0,
        "isfamily": 0
      },
      {
        "id": "49300978702",
        "owner": "98403995@N08",
        "secret": "4fbcc7e85c",
        "server": "65535",
        "farm": 66,
        "title": "Nepal - Boudha - Temple - 357",
        "ispublic": 1,
        "isfriend": 0,
        "isfamily": 0
      },
      {
        "id": "49300805187",
        "owner": "98403995@N08",
        "secret": "77eaaaeb83",
        "server": "65535",
        "farm": 66,
        "title": "Nepal - Boudha - Temple - 351",
        "ispublic": 1,
        "isfriend": 0,
        "isfamily": 0
      },
      {
        "id": "49300109703",
        "owner": "98403995@N08",
        "secret": "c28e6eba36",
        "server": "65535",
        "farm": 66,
        "title": "Nepal - Boudha - Temple - 352",
        "ispublic": 1,
        "isfriend": 0,
        "isfamily": 0
      },
      {
        "id": "49300108828",
        "owner": "98403995@N08",
        "secret": "4f46b39948",
        "server": "65535",
        "farm": 66,
        "title": "Nepal - Boudha - Temple - 314",
        "ispublic": 1,
        "isfriend": 0,
        "isfamily": 0
      },
      {
        "id": "49300108073",
        "owner": "98403995@N08",
        "secret": "547fb41f76",
        "server": "65535",
        "farm": 66,
        "title": "Nepal - Boudha - Temple - 338",
        "ispublic": 1,
        "isfriend": 0,
        "isfamily": 0
      },
      {
        "id": "49300801427",
        "owner": "98403995@N08",
        "secret": "cb9786e755",
        "server": "65535",
        "farm": 66,
        "title": "Nepal - Boudha - Temple - 345",
        "ispublic": 1,
        "isfriend": 0,
        "isfamily": 0
      },
      {
        "id": "49300800662",
        "owner": "98403995@N08",
        "secret": "9ec4b38a12",
        "server": "65535",
        "farm": 66,
        "title": "Nepal - Boudha - Temple - 346",
        "ispublic": 1,
        "isfriend": 0,
        "isfamily": 0
      },
      {
        "id": "49300593171",
        "owner": "98403995@N08",
        "secret": "46fe1f5e07",
        "server": "65535",
        "farm": 66,
        "title": "Nepal - Boudha - Temple - 347",
        "ispublic": 1,
        "isfriend": 0,
        "isfamily": 0
      },
      {
        "id": "49300592526",
        "owner": "98403995@N08",
        "secret": "f67c630357",
        "server": "65535",
        "farm": 66,
        "title": "Nepal - Boudha - Temple - 349",
        "ispublic": 1,
        "isfriend": 0,
        "isfamily": 0
      },
      {
        "id": "49300104073",
        "owner": "98403995@N08",
        "secret": "cde908d98d",
        "server": "65535",
        "farm": 66,
        "title": "Nepal - Boudha - Temple - 350",
        "ispublic": 1,
        "isfriend": 0,
        "isfamily": 0
      },
      {
        "id": "49300755967",
        "owner": "98403995@N08",
        "secret": "e0c725df13",
        "server": "65535",
        "farm": 66,
        "title": "Nepal - Boudha - Temple - 325",
        "ispublic": 1,
        "isfriend": 0,
        "isfamily": 0
      },
      {
        "id": "49300548761",
        "owner": "98403995@N08",
        "secret": "b5bdb598c0",
        "server": "65535",
        "farm": 66,
        "title": "Nepal - Boudha - Temple - 337bb",
        "ispublic": 1,
        "isfriend": 0,
        "isfamily": 0
      },
      {
        "id": "49300754307",
        "owner": "98403995@N08",
        "secret": "6b6ba0a473",
        "server": "65535",
        "farm": 66,
        "title": "Nepal - Boudha - Temple - 317",
        "ispublic": 1,
        "isfriend": 0,
        "isfamily": 0
      },
      {
        "id": "49300059383",
        "owner": "98403995@N08",
        "secret": "634299b085",
        "server": "65535",
        "farm": 66,
        "title": "Nepal - Boudha - Temple - 318",
        "ispublic": 1,
        "isfriend": 0,
        "isfamily": 0
      },
      {
        "id": "49300058618",
        "owner": "98403995@N08",
        "secret": "eb01194620",
        "server": "65535",
        "farm": 66,
        "title": "Nepal - Boudha - Temple - 319",
        "ispublic": 1,
        "isfriend": 0,
        "isfamily": 0
      },
      {
        "id": "49300057673",
        "owner": "98403995@N08",
        "secret": "cf15cfc833",
        "server": "65535",
        "farm": 66,
        "title": "Nepal - Boudha - Temple - 320",
        "ispublic": 1,
        "isfriend": 0,
        "isfamily": 0
      },
      {
        "id": "49300544181",
        "owner": "98403995@N08",
        "secret": "cfd3f7a33d",
        "server": "65535",
        "farm": 66,
        "title": "Nepal - Boudha - Temple - 321",
        "ispublic": 1,
        "isfriend": 0,
        "isfamily": 0
      },
      {
        "id": "49300749542",
        "owner": "98403995@N08",
        "secret": "9a92c4ac71",
        "server": "65535",
        "farm": 66,
        "title": "Nepal - Boudha - Temple - 322",
        "ispublic": 1,
        "isfriend": 0,
        "isfamily": 0
      },
      {
        "id": "49300054958",
        "owner": "98403995@N08",
        "secret": "2c8cd01bf8",
        "server": "65535",
        "farm": 66,
        "title": "Nepal - Boudha - Temple - 323",
        "ispublic": 1,
        "isfriend": 0,
        "isfamily": 0
      },
      {
        "id": "49300747812",
        "owner": "98403995@N08",
        "secret": "eaf5c1724e",
        "server": "65535",
        "farm": 66,
        "title": "Nepal - Boudha - Temple - 324",
        "ispublic": 1,
        "isfriend": 0,
        "isfamily": 0
      },
      {
        "id": "49300025143",
        "owner": "98403995@N08",
        "secret": "99999f4e1d",
        "server": "65535",
        "farm": 66,
        "title": "Nepal - Boudha - Temple - 316",
        "ispublic": 1,
        "isfriend": 0,
        "isfamily": 0
      },
      {
        "id": "49300511546",
        "owner": "98403995@N08",
        "secret": "80bc7195d6",
        "server": "65535",
        "farm": 66,
        "title": "Nepal - Boudha - Stupa - 335",
        "ispublic": 1,
        "isfriend": 0,
        "isfamily": 0
      },
      {
        "id": "49300023523",
        "owner": "98403995@N08",
        "secret": "03e4d49bcd",
        "server": "65535",
        "farm": 66,
        "title": "Nepal - Boudha - Stupa - 375",
        "ispublic": 1,
        "isfriend": 0,
        "isfamily": 0
      },
      {
        "id": "49300022723",
        "owner": "98403995@N08",
        "secret": "dc7f37a694",
        "server": "65535",
        "farm": 66,
        "title": "Nepal - Boudha - Stupa - 376",
        "ispublic": 1,
        "isfriend": 0,
        "isfamily": 0
      },
      {
        "id": "49300021778",
        "owner": "98403995@N08",
        "secret": "6cd4e6b763",
        "server": "65535",
        "farm": 66,
        "title": "Nepal - Boudha - Temple - 312",
        "ispublic": 1,
        "isfriend": 0,
        "isfamily": 0
      },
      {
        "id": "49300507891",
        "owner": "98403995@N08",
        "secret": "c649704f3b",
        "server": "65535",
        "farm": 66,
        "title": "Nepal - Boudha - Temple - 312bb",
        "ispublic": 1,
        "isfriend": 0,
        "isfamily": 0
      },
      {
        "id": "49300019743",
        "owner": "98403995@N08",
        "secret": "65c466f233",
        "server": "65535",
        "farm": 66,
        "title": "Nepal - Boudha - Temple - 313",
        "ispublic": 1,
        "isfriend": 0,
        "isfamily": 0
      },
      {
        "id": "49300505831",
        "owner": "98403995@N08",
        "secret": "e7a25aa122",
        "server": "65535",
        "farm": 66,
        "title": "Nepal - Boudha - Temple - 314bb",
        "ispublic": 1,
        "isfriend": 0,
        "isfamily": 0
      },
      {
        "id": "49300711042",
        "owner": "98403995@N08",
        "secret": "aee9695e19",
        "server": "65535",
        "farm": 66,
        "title": "Nepal - Boudha - Temple - 315",
        "ispublic": 1,
        "isfriend": 0,
        "isfamily": 0
      },
      {
        "id": "49300710197",
        "owner": "98403995@N08",
        "secret": "7a8e2dcf4e",
        "server": "65535",
        "farm": 66,
        "title": "Nepal - Boudha - Temple - 315bb",
        "ispublic": 1,
        "isfriend": 0,
        "isfamily": 0
      },
      {
        "id": "49300695362",
        "owner": "98403995@N08",
        "secret": "6d6f377038",
        "server": "65535",
        "farm": 66,
        "title": "Nepal - Boudha - Temple - 314dd",
        "ispublic": 1,
        "isfriend": 0,
        "isfamily": 0
      },
      {
        "id": "49300454146",
        "owner": "98403995@N08",
        "secret": "62aa585696",
        "server": "65535",
        "farm": 66,
        "title": "Nepal - Boudha - Temple - 345dd",
        "ispublic": 1,
        "isfriend": 0,
        "isfamily": 0
      },
      {
        "id": "49300453566",
        "owner": "98403995@N08",
        "secret": "1f999012b1",
        "server": "65535",
        "farm": 66,
        "title": "Nepal - Boudha - Temple - 337dd",
        "ispublic": 1,
        "isfriend": 0,
        "isfamily": 0
      },
      {
        "id": "49300463967",
        "owner": "98403995@N08",
        "secret": "0dc78a8641",
        "server": "65535",
        "farm": 66,
        "title": "Nepal - Boudha - Stupa - Prayer Wheels - 300ee",
        "ispublic": 1,
        "isfriend": 0,
        "isfamily": 0
      },
      {
        "id": "49300230731",
        "owner": "98403995@N08",
        "secret": "1b39a8862a",
        "server": "65535",
        "farm": 66,
        "title": "Nepal - Boudha - Streetlife - 376dd",
        "ispublic": 1,
        "isfriend": 0,
        "isfamily": 0
      },
      {
        "id": "49299693588",
        "owner": "98403995@N08",
        "secret": "6a56c1f769",
        "server": "65535",
        "farm": 66,
        "title": "Nepal - Boudha - 331bb",
        "ispublic": 1,
        "isfriend": 0,
        "isfamily": 0
      },
      {
        "id": "49300159126",
        "owner": "98403995@N08",
        "secret": "be7d551b5b",
        "server": "65535",
        "farm": 66,
        "title": "Nepal - Boudha - Stupa - 334",
        "ispublic": 1,
        "isfriend": 0,
        "isfamily": 0
      },
      {
        "id": "49299666658",
        "owner": "98403995@N08",
        "secret": "b2ee7b6749",
        "server": "65535",
        "farm": 66,
        "title": "Nepal - Boudha - Stupa - 308",
        "ispublic": 1,
        "isfriend": 0,
        "isfamily": 0
      },
      {
        "id": "49300364507",
        "owner": "98403995@N08",
        "secret": "6193c4a3b7",
        "server": "65535",
        "farm": 66,
        "title": "Nepal - Boudha - Stupa - 326",
        "ispublic": 1,
        "isfriend": 0,
        "isfamily": 0
      },
      {
        "id": "49300363577",
        "owner": "98403995@N08",
        "secret": "ac3f0f1f5a",
        "server": "65535",
        "farm": 66,
        "title": "Nepal - Boudha - Stupa - 327",
        "ispublic": 1,
        "isfriend": 0,
        "isfamily": 0
      },
      {
        "id": "49300362832",
        "owner": "98403995@N08",
        "secret": "20603d4846",
        "server": "65535",
        "farm": 66,
        "title": "Nepal - Boudha - Stupa - 328",
        "ispublic": 1,
        "isfriend": 0,
        "isfamily": 0
      },
      {
        "id": "49300155371",
        "owner": "98403995@N08",
        "secret": "1d13cf5222",
        "server": "65535",
        "farm": 66,
        "title": "Nepal - Boudha - Stupa - 329",
        "ispublic": 1,
        "isfriend": 0,
        "isfamily": 0
      },
      {
        "id": "49300361587",
        "owner": "98403995@N08",
        "secret": "f18ea101ab",
        "server": "65535",
        "farm": 66,
        "title": "Nepal - Boudha - Stupa - 329dd",
        "ispublic": 1,
        "isfriend": 0,
        "isfamily": 0
      },
      {
        "id": "49300154571",
        "owner": "98403995@N08",
        "secret": "0168a5ca3e",
        "server": "65535",
        "farm": 66,
        "title": "Nepal - Boudha - Stupa - 330",
        "ispublic": 1,
        "isfriend": 0,
        "isfamily": 0
      },
      {
        "id": "49300153796",
        "owner": "98403995@N08",
        "secret": "de113bc92a",
        "server": "65535",
        "farm": 66,
        "title": "Nepal - Boudha - Stupa - 332",
        "ispublic": 1,
        "isfriend": 0,
        "isfamily": 0
      },
      {
        "id": "49300153301",
        "owner": "98403995@N08",
        "secret": "64469621c0",
        "server": "65535",
        "farm": 66,
        "title": "Nepal - Boudha - Stupa - 333",
        "ispublic": 1,
        "isfriend": 0,
        "isfamily": 0
      },
      {
        "id": "49299645933",
        "owner": "98403995@N08",
        "secret": "804ae97672",
        "server": "65535",
        "farm": 66,
        "title": "Nepal - Boudha - Streetlife - 344dd",
        "ispublic": 1,
        "isfriend": 0,
        "isfamily": 0
      },
      {
        "id": "49295365538",
        "owner": "98403995@N08",
        "secret": "69ddf0c513",
        "server": "65535",
        "farm": 66,
        "title": "Nepal - Boudha - Stupa - 304",
        "ispublic": 1,
        "isfriend": 0,
        "isfamily": 0
      },
      {
        "id": "49295364798",
        "owner": "98403995@N08",
        "secret": "8be0280388",
        "server": "65535",
        "farm": 66,
        "title": "Nepal - Boudha - Stupa - 305",
        "ispublic": 1,
        "isfriend": 0,
        "isfamily": 0
      },
      {
        "id": "49295851341",
        "owner": "98403995@N08",
        "secret": "42baef9868",
        "server": "65535",
        "farm": 66,
        "title": "Nepal - Boudha - Stupa - 306",
        "ispublic": 1,
        "isfriend": 0,
        "isfamily": 0
      },
      {
        "id": "49295363523",
        "owner": "98403995@N08",
        "secret": "c4e3e04f38",
        "server": "65535",
        "farm": 66,
        "title": "Nepal - Boudha - Stupa - 307",
        "ispublic": 1,
        "isfriend": 0,
        "isfamily": 0
      },
      {
        "id": "49295850106",
        "owner": "98403995@N08",
        "secret": "36c16903df",
        "server": "65535",
        "farm": 66,
        "title": "Nepal - Boudha - Stupa - 303",
        "ispublic": 1,
        "isfriend": 0,
        "isfamily": 0
      },
      {
        "id": "49295348753",
        "owner": "98403995@N08",
        "secret": "e56cd63df7",
        "server": "65535",
        "farm": 66,
        "title": "Nepal - Boudha - Stupa - 302",
        "ispublic": 1,
        "isfriend": 0,
        "isfamily": 0
      },
      {
        "id": "49296029127",
        "owner": "98403995@N08",
        "secret": "2a53a4c85a",
        "server": "65535",
        "farm": 66,
        "title": "Nepal - Boudha - Stupa - 295",
        "ispublic": 1,
        "isfriend": 0,
        "isfamily": 0
      },
      {
        "id": "49295347733",
        "owner": "98403995@N08",
        "secret": "71d4d621d8",
        "server": "65535",
        "farm": 66,
        "title": "Nepal - Boudha - Stupa - 296",
        "ispublic": 1,
        "isfriend": 0,
        "isfamily": 0
      },
      {
        "id": "49295834386",
        "owner": "98403995@N08",
        "secret": "0469acb95c",
        "server": "65535",
        "farm": 66,
        "title": "Nepal - Boudha - Stupa - 297",
        "ispublic": 1,
        "isfriend": 0,
        "isfamily": 0
      },
      {
        "id": "49295833701",
        "owner": "98403995@N08",
        "secret": "5d801b075a",
        "server": "65535",
        "farm": 66,
        "title": "Nepal - Boudha - Stupa - 298",
        "ispublic": 1,
        "isfriend": 0,
        "isfamily": 0
      },
      {
        "id": "49295832986",
        "owner": "98403995@N08",
        "secret": "46ba0fbbd5",
        "server": "65535",
        "farm": 66,
        "title": "Nepal - Boudha - Stupa - 299",
        "ispublic": 1,
        "isfriend": 0,
        "isfamily": 0
      },
      {
        "id": "49295345078",
        "owner": "98403995@N08",
        "secret": "6c7af78d4a",
        "server": "65535",
        "farm": 66,
        "title": "Nepal - Boudha - Stupa - 301",
        "ispublic": 1,
        "isfriend": 0,
        "isfamily": 0
      },
      {
        "id": "49292272842",
        "owner": "98403995@N08",
        "secret": "f50cc6588f",
        "server": "65535",
        "farm": 66,
        "title": "Nepal - Boudha - Streetlife - 344bb",
        "ispublic": 1,
        "isfriend": 0,
        "isfamily": 0
      },
      {
        "id": "49292228587",
        "owner": "98403995@N08",
        "secret": "c01abed120",
        "server": "65535",
        "farm": 66,
        "title": "Nepal - Boudha - Craftmanshift - 371",
        "ispublic": 1,
        "isfriend": 0,
        "isfamily": 0
      },
      {
        "id": "49292030446",
        "owner": "98403995@N08",
        "secret": "b5ec7aa62a",
        "server": "65535",
        "farm": 66,
        "title": "Nepal - Boudha - Craftmanshift - 370",
        "ispublic": 1,
        "isfriend": 0,
        "isfamily": 0
      },
      {
        "id": "49292029966",
        "owner": "98403995@N08",
        "secret": "70fbcba575",
        "server": "65535",
        "farm": 66,
        "title": "Nepal - Boudha - Craftmanshift - 339",
        "ispublic": 1,
        "isfriend": 0,
        "isfamily": 0
      },
      {
        "id": "49292029526",
        "owner": "98403995@N08",
        "secret": "15356fce72",
        "server": "65535",
        "farm": 66,
        "title": "Nepal - Boudha - Craftmanshift - 340",
        "ispublic": 1,
        "isfriend": 0,
        "isfamily": 0
      },
      {
        "id": "49291541398",
        "owner": "98403995@N08",
        "secret": "71d1650a3a",
        "server": "65535",
        "farm": 66,
        "title": "Nepal - Boudha - Craftmanshift - 341",
        "ispublic": 1,
        "isfriend": 0,
        "isfamily": 0
      },
      {
        "id": "49291540963",
        "owner": "98403995@N08",
        "secret": "451a7a0ea4",
        "server": "65535",
        "farm": 66,
        "title": "Nepal - Boudha - Craftmanshift - 342",
        "ispublic": 1,
        "isfriend": 0,
        "isfamily": 0
      },
      {
        "id": "49292028121",
        "owner": "98403995@N08",
        "secret": "3be07ee10c",
        "server": "65535",
        "farm": 66,
        "title": "Nepal - Boudha - Craftmanshift - 343",
        "ispublic": 1,
        "isfriend": 0,
        "isfamily": 0
      },
      {
        "id": "49292027591",
        "owner": "98403995@N08",
        "secret": "fdc7c8660d",
        "server": "65535",
        "farm": 66,
        "title": "Nepal - Boudha - Craftmanshift - 368",
        "ispublic": 1,
        "isfriend": 0,
        "isfamily": 0
      }
    ]
  },
  "stat": "ok"
}
